/*C13*/SET SCHEMA PUBLIC
DISCONNECT
/*C14*/SET SCHEMA PUBLIC
INSERT INTO ADDRESS VALUES(2,'eee','eee','eee','CZECH_REPUBLIC')
COMMIT
DISCONNECT
/*C15*/SET SCHEMA PUBLIC
INSERT INTO USER VALUES(2,'eee','eee',2,'e@ee.ee','98dae0e08c01f9e64dc3f9650eb5a714')
COMMIT
DISCONNECT
/*C16*/SET SCHEMA PUBLIC
DISCONNECT
/*C17*/SET SCHEMA PUBLIC
DISCONNECT
/*C18*/SET SCHEMA PUBLIC
DISCONNECT
/*C19*/SET SCHEMA PUBLIC
DISCONNECT
/*C20*/SET SCHEMA PUBLIC
DISCONNECT
/*C21*/SET SCHEMA PUBLIC
DISCONNECT
